<?xml version="1.0" encoding="UTF-8" standalone="no"?>
<!-- Created with Inkscape (http://www.inkscape.org/) -->

<svg
   xmlns:dc="http://purl.org/dc/elements/1.1/"
   xmlns:cc="http://creativecommons.org/ns#"
   xmlns:rdf="http://www.w3.org/1999/02/22-rdf-syntax-ns#"
   xmlns:svg="http://www.w3.org/2000/svg"
   xmlns="http://www.w3.org/2000/svg"
   xmlns:sodipodi="http://sodipodi.sourceforge.net/DTD/sodipodi-0.dtd"
   xmlns:inkscape="http://www.inkscape.org/namespaces/inkscape"
   width="210mm"
   height="297mm"
   viewBox="0 0 210 297"
   version="1.1"
   id="svg8"
   inkscape:version="0.92.2 2405546, 2018-03-11"
   sodipodi:docname="da_search.svg">
  <defs
     id="defs2" />
  <sodipodi:namedview
     id="base"
     pagecolor="#ffffff"
     bordercolor="#666666"
     borderopacity="1.0"
     inkscape:pageopacity="0.0"
     inkscape:pageshadow="2"
     inkscape:zoom="0.35"
     inkscape:cx="400"
     inkscape:cy="560"
     inkscape:document-units="mm"
     inkscape:current-layer="layer1"
     showgrid="false"
     inkscape:window-width="683"
     inkscape:window-height="704"
     inkscape:window-x="683"
     inkscape:window-y="30"
     inkscape:window-maximized="0" />
  <metadata
     id="metadata5">
    <rdf:RDF>
      <cc:Work
         rdf:about="">
        <dc:format>image/svg+xml</dc:format>
        <dc:type
           rdf:resource="http://purl.org/dc/dcmitype/StillImage" />
        <dc:title></dc:title>
      </cc:Work>
    </rdf:RDF>
  </metadata>
  <g
     inkscape:label="Layer 1"
     inkscape:groupmode="layer"
     id="layer1">
    <path
       style="fill:#000000;fill-opacity:1;stroke:#000076;stroke-width:2.79999995;stroke-miterlimit:4;stroke-dasharray:none;stroke-opacity:0.38566553"
       id="path10"
       d="m 39.632516,64.107184 c -0.725207,8.597315 -0.257243,17.233915 0.179708,25.832752 0.600147,9.308729 0.975471,18.627894 1.405588,27.945144 0.191852,5.01475 0.485992,10.02625 0.4205,15.04595 -0.140459,5.57495 -0.08743,11.14232 0.102658,16.71502 0.141383,5.90915 0.739474,11.79132 1.058863,17.69119 0.226089,3.87352 0.392504,7.74894 0.474419,11.62808 0.125214,1.92516 0.148108,3.85255 0.162864,5.78109 -0.02741,1.24827 0.06566,2.49364 0.05927,3.74126 0.01513,0.77087 0.02289,1.54155 0.04174,2.3122 -0.0021,0.70454 -0.01937,1.40934 -0.008,2.11389 0.02949,0.72492 -0.0052,1.45034 -0.02907,2.1751 -0.0113,1.04172 -0.0021,2.08207 -0.0098,3.12414 0.02426,0.84415 0.0046,1.68874 0.04494,2.53243 0.0072,0.67314 -0.01328,1.34622 -0.0034,2.01932 -0.0013,0.63001 -0.0074,1.26119 0.01902,1.89087 0.0039,0.0636 0.0077,0.12712 0.01156,0.19068 0,0 -10.01948,5.10518 -10.01948,5.10518 v 0 c 0.0039,-0.0675 0.0077,-0.13497 0.01156,-0.20246 0.02564,-0.63619 0.02082,-1.27375 0.01902,-1.91024 0.0097,-0.67194 -0.01056,-1.34385 -0.0034,-2.01583 0.03914,-0.85901 0.02151,-1.71878 0.04494,-2.57822 -0.0078,-1.03872 0.0016,-2.07574 -0.0098,-3.11412 -0.02434,-0.71489 -0.0587,-1.43035 -0.02909,-2.14545 0.01114,-0.70183 -0.0057,-1.40389 -0.0081,-2.1057 0.01871,-0.78509 0.02667,-1.57022 0.04221,-2.35551 -0.0055,-1.26952 0.08984,-2.53672 0.06662,-3.80687 0.02135,-1.98076 0.05563,-3.9602 0.162127,-5.93846 0.04095,-3.94199 0.100245,-7.88491 0.0011,-11.82662 -0.204219,-5.94521 -0.572553,-11.88163 -0.810107,-17.82492 -0.243247,-5.5073 -0.639812,-11.00854 -0.560657,-16.52516 -0.06325,-5.12547 0.225179,-10.24535 0.253886,-15.37063 0.103505,-9.43569 -0.09868,-18.87742 -0.635608,-28.298765 -0.551538,-8.296773 -0.925121,-16.651206 -2.173354,-24.874069 0,0 9.717416,-4.951272 9.717416,-4.951272 z"
       inkscape:connector-curvature="0" />
    <path
       style="fill:#000000;fill-opacity:1;stroke:#000076;stroke-width:2.79999995;stroke-miterlimit:4;stroke-dasharray:none;stroke-opacity:0.38566553"
       id="path12"
       d="m 34.730462,79.595534 c 9.176866,-0.813329 18.330315,-1.906023 27.506789,-2.74888 10.309368,-1.13461 20.662503,-1.677734 31.023989,-2.011508 4.95196,-0.02297 9.90352,0.177599 14.7963,0.963287 3.45787,0.649904 6.84671,1.573287 10.1886,2.665293 2.26983,0.938012 4.59778,1.753526 6.76801,2.910327 1.71977,0.855956 3.37474,1.862709 4.94384,2.971705 1.8369,1.124738 3.46649,2.562233 5.06991,3.992485 1.65656,1.519936 3.27472,3.082902 4.82799,4.708301 1.67997,1.586965 3.19797,3.305722 4.54298,5.182187 1.0826,1.654516 1.92023,3.461419 2.71408,5.269269 0.86217,1.90451 1.15603,3.94033 1.2776,6.00596 0.0495,2.33084 0.07,4.65734 0.21443,6.98436 0.0685,2.95028 -0.0885,5.89909 -0.10943,8.84948 0.10881,2.20972 -0.41067,4.36405 -1.03049,6.46636 -0.65,2.18221 -1.63608,4.24106 -2.67566,6.2601 -1.37258,2.80606 -2.9024,5.53788 -4.12677,8.41356 -0.77418,1.76871 -1.38868,3.60261 -2.35581,5.27998 -0.65548,1.17204 -1.50401,2.20618 -2.40165,3.19769 -1.37722,1.31241 -2.90612,2.48195 -4.43504,3.61413 -7.40904,4.62097 -14.99943,8.98591 -22.71217,13.08503 -3.4164,1.86755 -6.84339,3.72013 -10.365902,5.38072 -2.153018,1.09046 -4.267642,2.26261 -6.453394,3.28651 -3.355758,1.1219 -6.880846,1.56546 -10.354651,2.17089 -6.083321,1.03679 -12.181263,1.98836 -18.269296,3.0006 -4.453864,0.76937 -8.920591,1.38988 -13.430565,1.69866 -3.874889,0.23184 -7.758925,0.24899 -11.639534,0.24982 -4.102563,-0.07 -8.210529,0.066 -12.30925,-0.13289 -2.784629,-0.17823 -5.569745,-0.36165 -8.359803,-0.4257 -0.890535,-0.0186 -0.467476,-0.0145 -1.26915,-0.0151 0,0 8.9914,-6.47227 8.9914,-6.47227 v 0 c 0.740691,0.0678 0.346197,0.0324 1.183537,0.10538 2.622124,0.29499 5.246454,0.58375 7.880937,0.74448 4.102092,0.18017 8.209092,0.0595 12.314007,0.0664 3.847457,-0.0213 7.697597,-0.0252 11.539352,-0.26511 4.39502,-0.33079 8.750052,-0.94178 13.111581,-1.5673 6.112203,-0.89405 12.232928,-1.78083 18.280284,-3.05211 3.627644,-0.7566 7.341714,-1.37551 10.768457,-2.8373 2.12912,-1.06596 4.23799,-2.17271 6.37928,-3.21433 3.31273,-1.56915 6.57167,-3.24691 9.7962,-4.99004 2.76706,-1.4862 2.16801,-1.14411 4.94418,-2.71899 0.87234,-0.49486 3.47799,-1.99936 2.61177,-1.49384 -12.31697,7.1881 -5.21738,3.09366 -2.52831,1.30232 1.46318,-0.9971 2.69005,-2.26963 4.15872,-3.26571 0.90159,-0.94156 1.80218,-1.89111 2.51127,-2.99178 1.04533,-1.69301 2.00882,-3.40455 2.68976,-5.29123 1.33503,-2.84311 2.82039,-5.60736 4.14007,-8.45887 0.91529,-1.97958 1.89623,-3.94876 2.53489,-6.03649 0.74775,-2.00393 1.32154,-4.10916 1.33246,-6.26067 0.13652,-2.91016 0.26815,-5.82629 0.17294,-8.7397 -0.28073,-2.31471 -0.32059,-4.61527 -0.35629,-6.94511 -0.12961,-1.92988 -0.3181,-3.86605 -1.08725,-5.66595 -0.79708,-1.73109 -1.65087,-3.44301 -2.63753,-5.07403 -1.27497,-1.8443 -2.67281,-3.58002 -4.35674,-5.075555 -1.61651,-1.537136 -3.16732,-3.143027 -4.82605,-4.635896 -1.5945,-1.408293 -3.24767,-2.738263 -5.08105,-3.828058 -1.55677,-1.043403 -3.15155,-2.037482 -4.81762,-2.897868 -2.10525,-1.084582 -4.31304,-1.959774 -6.4893,-2.88935 -3.24527,-1.108879 -6.54435,-2.03772 -9.925324,-2.635713 -4.649108,-0.723834 -9.332659,-1.161214 -14.037662,-1.301324 -10.017437,-0.147741 -20.030641,0.164174 -29.989115,1.348134 -9.879656,1.005284 -19.785463,2.087009 -29.472948,4.343416 0,0 8.688141,-6.578182 8.688141,-6.578182 z"
       inkscape:connector-curvature="0" />
    <path
       style="fill:#000000;fill-opacity:1;stroke:#000076;stroke-width:2.79999995;stroke-miterlimit:4;stroke-dasharray:none;stroke-opacity:0.38566553"
       id="path14"
       d="m 17.97965,132.60679 c 7.046845,-0.95609 14.02154,-2.4131 20.980396,-3.86583 9.922798,-2.28315 19.760994,-4.89319 29.675233,-7.21448 10.325412,-2.46506 20.737443,-4.51953 31.184428,-6.39175 7.992533,-1.54254 16.030293,-2.79448 24.084673,-3.95838 5.60787,-0.71157 11.20488,-1.51934 16.83274,-2.05981 3.77282,-0.353 7.56395,-0.37151 11.34922,-0.43107 2.70807,-0.0292 5.41616,-0.0497 8.12421,-0.0823 1.88931,-0.004 3.77929,0.005 5.66823,-0.0386 1.17959,0.0183 2.3583,-0.0406 3.53774,-0.0426 0.74495,-0.0157 1.48993,-5.3e-4 2.23482,-0.0208 0,0 -9.05812,6.58114 -9.05812,6.58114 v 0 c -0.72585,-0.0212 -1.45185,-0.004 -2.17776,-0.0206 -1.14032,-0.002 -2.2798,-0.0618 -3.4203,-0.0434 -1.84878,-0.0469 -3.69881,-0.0382 -5.54804,-0.051 -2.62463,-0.0444 -5.24944,-0.0817 -7.87447,-0.0867 -3.69845,-0.005 -7.39866,0.0769 -11.08845,0.34356 -5.44081,0.4345 -10.8627,1.08753 -16.28373,1.71476 -7.8829,1.06684 -15.74868,2.24182 -23.58384,3.62116 -10.362115,1.74763 -20.670919,3.78023 -30.890257,6.23765 -9.966158,2.42328 -19.859509,5.14392 -29.880041,7.34446 -7.563378,1.65846 -15.139602,3.2595 -22.676803,5.03444 0,0 8.810121,-6.56985 8.810121,-6.56985 z"
       inkscape:connector-curvature="0" />
    <path
       style="fill:#000000;fill-opacity:1;stroke:#000076;stroke-width:2.79999995;stroke-miterlimit:4;stroke-dasharray:none;stroke-opacity:0.38566553"
       id="path18"
       d="m 56.31554,205.89001 c 0.763154,-6.96282 1.02465,-13.97062 1.401014,-20.96207 0.715592,-9.28994 1.03808,-18.60141 1.78449,-27.88862 1.023509,-10.47469 2.616841,-20.88546 4.203891,-31.2869 0.929981,-7.66003 2.236779,-15.26126 3.73629,-22.82787 1.013793,-5.343842 2.418918,-10.593572 4.138437,-15.750145 1.748499,-4.295569 3.360238,-8.651176 5.216991,-12.901639 2.009608,-4.122385 3.655851,-8.400378 5.156581,-12.729686 0.950195,-2.71885 1.758516,-5.488281 2.51138,-8.267983 0.307634,-1.125416 0.433057,-2.284854 0.522279,-3.443817 0.579679,-4.380663 0.769332,-4.501774 10.307455,-5.037886 1.047975,-0.0589 -0.05747,2.098609 -0.06526,3.148208 -0.01251,1.685915 0.0029,3.371919 0.0043,5.057881 0.249291,11.437038 0.538234,22.886352 1.424038,34.295657 0.69574,8.961268 1.119894,11.756588 2.182296,20.72367 2.276648,19.09871 6.458818,37.86829 11.296558,56.45801 3.05822,12.22356 6.51242,24.3354 10.45479,36.30202 1.4577,4.77096 3.6333,9.25345 5.66327,13.79095 0.52754,1.17289 0.29633,0.60499 0.70443,1.69925 0,0 -9.60584,5.25628 -9.60584,5.25628 v 0 c -0.25834,-1.10664 -0.11087,-0.52016 -0.45066,-1.75734 -1.50734,-4.85689 -3.10959,-9.68605 -4.27081,-14.6445 -3.15651,-12.34362 -6.2325,-24.70655 -8.96296,-37.153 -4.332202,-18.84321 -7.799913,-37.86075 -10.406795,-57.02242 -1.34915,-10.44451 -1.395791,-10.22511 -2.443869,-20.619824 -1.11547,-11.063108 -1.911924,-22.167882 -3.581542,-33.168357 -0.272198,-1.537684 -0.502931,-3.083288 -0.816592,-4.61305 -0.183729,-0.896067 -1.341922,-2.034252 -0.67465,-2.659904 2.758958,-2.586868 6.508212,-3.855217 9.732129,-5.832621 0.07262,-0.04454 -0.194231,-0.04023 -0.254805,0.01966 -0.03432,0.03393 -0.266718,0.702421 -0.285186,0.754343 -0.04208,1.29381 -0.364972,2.543516 -0.678207,3.79462 -0.864793,2.890459 -1.953789,5.713756 -2.960187,8.556643 -1.598279,4.321498 -3.157371,8.678243 -5.178978,12.823126 -1.89992,4.218631 -3.496654,8.559012 -5.271503,12.830429 -1.852266,5.201113 -3.559844,10.455643 -4.687509,15.869904 -1.648058,7.676821 -3.099387,15.395221 -4.449474,23.129711 -1.749636,10.31965 -3.451299,20.67219 -4.065196,31.13398 -0.665001,9.28455 -1.17558,18.57987 -1.80685,27.86684 -0.220075,6.66809 -0.508624,13.41051 0.309457,20.04618 0,0 -9.833205,5.01026 -9.833205,5.01026 z"
       inkscape:connector-curvature="0" />
  </g>
</svg>
